\relax 
\pgfsyspdfmark {pgfid2}{19579138}{27690495}
\pgfsyspdfmark {pgfid1}{4736286}{50644704}
\@input{./Company/Description.aux}
\pgfsyspdfmark {pgfid4}{19579138}{27690495}
\pgfsyspdfmark {pgfid3}{4736286}{50644704}
\@input{./Jobs/SoftwareEngineering.aux}
\pgfsyspdfmark {pgfid6}{19579138}{27690495}
\pgfsyspdfmark {pgfid5}{4736286}{50644704}
\@input{./Jobs/ComputerScience.aux}
\pgfsyspdfmark {pgfid8}{19579138}{27690495}
\pgfsyspdfmark {pgfid7}{4736286}{50644704}
\pgfsyspdfmark {pgfid10}{19579138}{27690495}
\pgfsyspdfmark {pgfid9}{4736286}{50644704}
\@input{./Conclusion/Conclusion.aux}
\pgfsyspdfmark {pgfid12}{19579138}{27690495}
\pgfsyspdfmark {pgfid11}{4736286}{50644704}
\bibdata{bibliography}
\bibcite{TwitterSite}{\citeauthoryear {{\em  Twitter Carrer\/}}{{\em  Twitter Carrer\/}}{{\APACyear {2018}}}}
\APACbibcite{TwitterSite}{\citeauthoryear {{\em  Twitter Carrer\/}}{{\em  Twitter Carrer\/}}{{\APACyear {2018}}}}
\bibcite{TwitterCompanySite}{\citeauthoryear {{\em  Twitter Company\/}}{{\em  Twitter Company\/}}{{\APACyear {2018}}}}
\APACbibcite{TwitterCompanySite}{\citeauthoryear {{\em  Twitter Company\/}}{{\em  Twitter Company\/}}{{\APACyear {2018}}}}
\bibcite{WikipediaSite}{\citeauthoryear {{\em  Twitter Wiki\/}}{{\em  Twitter Wiki\/}}{{\APACyear {2018}}}}
\APACbibcite{WikipediaSite}{\citeauthoryear {{\em  Twitter Wiki\/}}{{\em  Twitter Wiki\/}}{{\APACyear {2018}}}}
\bibstyle{apacite}
\citation{TwitterSite}
\citation{TwitterCompanySite}
\citation{WikipediaSite}
\pgfsyspdfmark {pgfid14}{19579138}{27690495}
\pgfsyspdfmark {pgfid13}{4736286}{50644704}
\@writefile{toc}{\contentsline {chapter}{References}{6}}
